{
  "count": 10000,
  "next": "https://www.udemy.com/api-2.0/courses/?page=2&page_size=12",
  "previous": null,
  "results": [
    {
      "_class": "course",
      "id": 2259510,
      "title": "Visual Studio Code: Mejora tu velocidad para codificar",
      "url": "/course/vscode-mejora-tu-velocidad-para-codificar/",
      "is_paid": false,
      "price": "Free",
      "price_detail": null,
      "price_serve_tracking_id": "dQgKRYSVQj2ahlASLas4Mg",
      "visible_instructors": [
        {
          "_class": "user",
          "id": 11767934,
          "title": "Fernando Herrera",
          "name": "Fernando",
          "display_name": "Fernando Herrera",
          "job_title": "A Full-Stack Developer & Teacher",
          "image_50x50": "https://img-c.udemycdn.com/user/50x50/11767934_4361_2.jpg",
          "image_100x100": "https://img-c.udemycdn.com/user/100x100/11767934_4361_2.jpg",
          "initials": "FH",
          "url": "/user/550c38655ec11/"
        }
      ],
      "image_125_H": "https://img-c.udemycdn.com/course/125_H/2259510_13b4_3.jpg",
      "image_240x135": "https://img-c.udemycdn.com/course/240x135/2259510_13b4_3.jpg",
      "is_practice_test_course": false,
      "image_480x270": "https://img-c.udemycdn.com/course/480x270/2259510_13b4_3.jpg",
      "published_title": "vscode-mejora-tu-velocidad-para-codificar",
      "tracking_id": "",
      "locale": {
        "_class": "locale",
        "locale": "es_LA",
        "title": "Español",
        "english_title": "Spanish",
        "simple_english_title": "Spanish"
      },
      "predictive_score": null,
      "relevancy_score": null,
      "input_features": null,
      "lecture_search_result": null,
      "curriculum_lectures": [],
      "order_in_results": null,
      "curriculum_items": [],
      "headline": "Trucos que te harán disfrutar más tu experiencia como desarrollador y trabajar a mayor velocidad en VSCode",
      "instructor_name": null
    },
    {
      "_class": "course",
      "id": 2426324,
      "title": "Aprende SQL desde CERO hasta AVANZADO como un PROFESIONAL.",
      "url": "/course/aprende-sql-desde-cero-hasta-avanzado-como-un-profesional/",
      "is_paid": false,
      "price": "Free",
      "price_detail": null,
      "price_serve_tracking_id": "wux1AvTvQPWP38lGqKQR0g",
      "visible_instructors": [
        {
          "_class": "user",
          "id": 58753080,
          "title": "Candido Acevedo Medrano",
          "name": "Candido",
          "display_name": "Candido Acevedo Medrano",
          "job_title": "Tecnólogo en Software",
          "image_50x50": "https://img-c.udemycdn.com/user/50x50/58753080_4bc7.jpg",
          "image_100x100": "https://img-c.udemycdn.com/user/100x100/58753080_4bc7.jpg",
          "initials": "CA",
          "url": "/user/candido-acevedo-medrano/"
        }
      ],
      "image_125_H": "https://img-c.udemycdn.com/course/125_H/2426324_44c3_2.jpg",
      "image_240x135": "https://img-c.udemycdn.com/course/240x135/2426324_44c3_2.jpg",
      "is_practice_test_course": false,
      "image_480x270": "https://img-c.udemycdn.com/course/480x270/2426324_44c3_2.jpg",
      "published_title": "aprende-sql-desde-cero-hasta-avanzado-como-un-profesional",
      "tracking_id": "",
      "locale": {
        "_class": "locale",
        "locale": "es_ES",
        "title": "Español (España)",
        "english_title": "Spanish (Spain)",
        "simple_english_title": "Spanish"
      },
      "predictive_score": null,
      "relevancy_score": null,
      "input_features": null,
      "lecture_search_result": null,
      "curriculum_lectures": [],
      "order_in_results": null,
      "curriculum_items": [],
      "headline": "Aprende SQL con la Base de Datos mas utilizada en el mundo MYSQL, desde CERO hasta AVANZADO. El curso mas completo.",
      "instructor_name": null
    },
    {
      "_class": "course",
      "id": 2573656,
      "title": "Introducción a la Programación con Python",
      "url": "/course/introduccion-a-la-programacion-con-python-juan-de-la-torre/",
      "is_paid": false,
      "price": "Free",
      "price_detail": null,
      "price_serve_tracking_id": "IRtf0vI6SWugoIbPi4K3SQ",
      "visible_instructors": [
        {
          "_class": "user",
          "id": 4748648,
          "title": "Juan Pablo De la torre Valdez",
          "name": "Juan Pablo",
          "display_name": "Juan Pablo De la torre Valdez",
          "job_title": "Creador de Código Con Juan - Aprende Con Proyectos Reales",
          "image_50x50": "https://img-c.udemycdn.com/user/50x50/4748648_5109_2.jpg",
          "image_100x100": "https://img-c.udemycdn.com/user/100x100/4748648_5109_2.jpg",
          "initials": "JD",
          "url": "/user/juanpablodelatorrevaldez/"
        }
      ],
      "image_125_H": "https://img-c.udemycdn.com/course/125_H/2573656_24be.jpg",
      "image_240x135": "https://img-c.udemycdn.com/course/240x135/2573656_24be.jpg",
      "is_practice_test_course": false,
      "image_480x270": "https://img-c.udemycdn.com/course/480x270/2573656_24be.jpg",
      "published_title": "introduccion-a-la-programacion-con-python-juan-de-la-torre",
      "tracking_id": "",
      "locale": {
        "_class": "locale",
        "locale": "es_MX",
        "title": "Español (México)",
        "english_title": "Spanish (Mexico)",
        "simple_english_title": "Spanish"
      },
      "predictive_score": null,
      "relevancy_score": null,
      "input_features": null,
      "lecture_search_result": null,
      "curriculum_lectures": [],
      "order_in_results": null,
      "curriculum_items": [],
      "headline": "¿Deseas aprender Programación para obtener un mejor trabajo o crear una idea? ¡Este curso es para ti!",
      "instructor_name": null
    },
    {
      "_class": "course",
      "id": 1311964,
      "title": "Angular: Convierte cualquier template HTML en una WebAPP",
      "url": "/course/html-hacia-angular/",
      "is_paid": false,
      "price": "Free",
      "price_detail": null,
      "price_serve_tracking_id": "a8q4LXLhT3eg2otGF2Z5Pg",
      "visible_instructors": [
        {
          "_class": "user",
          "id": 11767934,
          "title": "Fernando Herrera",
          "name": "Fernando",
          "display_name": "Fernando Herrera",
          "job_title": "A Full-Stack Developer & Teacher",
          "image_50x50": "https://img-c.udemycdn.com/user/50x50/11767934_4361_2.jpg",
          "image_100x100": "https://img-c.udemycdn.com/user/100x100/11767934_4361_2.jpg",
          "initials": "FH",
          "url": "/user/550c38655ec11/"
        }
      ],
      "image_125_H": "https://img-c.udemycdn.com/course/125_H/1311964_639f_5.jpg",
      "image_240x135": "https://img-c.udemycdn.com/course/240x135/1311964_639f_5.jpg",
      "is_practice_test_course": false,
      "image_480x270": "https://img-c.udemycdn.com/course/480x270/1311964_639f_5.jpg",
      "published_title": "html-hacia-angular",
      "tracking_id": "",
      "locale": {
        "_class": "locale",
        "locale": "es_LA",
        "title": "Español",
        "english_title": "Spanish",
        "simple_english_title": "Spanish"
      },
      "predictive_score": null,
      "relevancy_score": null,
      "input_features": null,
      "lecture_search_result": null,
      "curriculum_lectures": [],
      "order_in_results": null,
      "curriculum_items": [],
      "headline": "¿Quieres aprender a crear un sitio web dinámico con Angular, Firebase y GitHub Pages? Estas en el lugar correcto.",
      "instructor_name": null
    },
    {
      "_class": "course",
      "id": 807580,
      "title": "60+ Herramientas de desarrollo y diseño web",
      "url": "/course/recursos-web-plugins-y-utilidades/",
      "is_paid": false,
      "price": "Free",
      "price_detail": null,
      "price_serve_tracking_id": "2JC8D2s-Rbm4yPFpLTGTAg",
      "visible_instructors": [
        {
          "_class": "user",
          "id": 11767934,
          "title": "Fernando Herrera",
          "name": "Fernando",
          "display_name": "Fernando Herrera",
          "job_title": "A Full-Stack Developer & Teacher",
          "image_50x50": "https://img-c.udemycdn.com/user/50x50/11767934_4361_2.jpg",
          "image_100x100": "https://img-c.udemycdn.com/user/100x100/11767934_4361_2.jpg",
          "initials": "FH",
          "url": "/user/550c38655ec11/"
        }
      ],
      "image_125_H": "https://img-c.udemycdn.com/course/125_H/807580_7ae0_2.jpg",
      "image_240x135": "https://img-c.udemycdn.com/course/240x135/807580_7ae0_2.jpg",
      "is_practice_test_course": false,
      "image_480x270": "https://img-c.udemycdn.com/course/480x270/807580_7ae0_2.jpg",
      "published_title": "recursos-web-plugins-y-utilidades",
      "tracking_id": "",
      "locale": {
        "_class": "locale",
        "locale": "es_ES",
        "title": "Español (España)",
        "english_title": "Spanish (Spain)",
        "simple_english_title": "Spanish"
      },
      "predictive_score": null,
      "relevancy_score": null,
      "input_features": null,
      "lecture_search_result": null,
      "curriculum_lectures": [],
      "order_in_results": null,
      "curriculum_items": [],
      "headline": "Una completa colección de recursos que debes tener y conocer, totalmente gratuitos",
      "instructor_name": null
    },
    {
      "_class": "course",
      "id": 649070,
      "title": "Lógica Programación: Aprende Programar en Cualquier Lenguaje",
      "url": "/course/logica-programacion-aprende-programar-en-cualquier-lenguaje/",
      "is_paid": false,
      "price": "Free",
      "price_detail": null,
      "price_serve_tracking_id": "1I8MZaghQBSvOPLUHWfCsw",
      "visible_instructors": [
        {
          "_class": "user",
          "id": 16970962,
          "title": "Sayyab Tariq Awan",
          "name": "Sayyab Tariq",
          "display_name": "Sayyab Tariq Awan",
          "job_title": "Full Stack Engineer",
          "image_50x50": "https://img-c.udemycdn.com/user/50x50/16970962_8ccf.jpg",
          "image_100x100": "https://img-c.udemycdn.com/user/100x100/16970962_8ccf.jpg",
          "initials": "SA",
          "url": "/user/sayyab-tariq/"
        }
      ],
      "image_125_H": "https://img-c.udemycdn.com/course/125_H/649070_112f_4.jpg",
      "image_240x135": "https://img-c.udemycdn.com/course/240x135/649070_112f_4.jpg",
      "is_practice_test_course": false,
      "image_480x270": "https://img-c.udemycdn.com/course/480x270/649070_112f_4.jpg",
      "published_title": "logica-programacion-aprende-programar-en-cualquier-lenguaje",
      "tracking_id": "",
      "locale": {
        "_class": "locale",
        "locale": "es_LA",
        "title": "Español",
        "english_title": "Spanish",
        "simple_english_title": "Spanish"
      },
      "predictive_score": null,
      "relevancy_score": null,
      "input_features": null,
      "lecture_search_result": null,
      "curriculum_lectures": [],
      "order_in_results": null,
      "curriculum_items": [],
      "headline": "Un curso muy básico para aprender a programar en cualquier lenguaje: Java, C++, JavaScript, Python, SQL, HTML, Swift etc",
      "instructor_name": null
    },
    {
      "_class": "course",
      "id": 2310326,
      "title": "Curso de C# .NET desde cero hasta lo mas avanzado full stack",
      "url": "/course/curso-de-c-sharp-net-core-desde-cero/",
      "is_paid": false,
      "price": "Free",
      "price_detail": null,
      "price_serve_tracking_id": "FwxdHmXoTd-3rHjne6gP8A",
      "visible_instructors": [
        {
          "_class": "user",
          "id": 38783516,
          "title": "Alex Joel Pagoada Suazo",
          "name": "Alex Joel",
          "display_name": "Alex Joel Pagoada Suazo",
          "job_title": "Programador y YouTuber",
          "image_50x50": "https://img-c.udemycdn.com/user/50x50/38783516_904a_13.jpg",
          "image_100x100": "https://img-c.udemycdn.com/user/100x100/38783516_904a_13.jpg",
          "initials": "AP",
          "url": "/user/alex-pagoada/"
        }
      ],
      "image_125_H": "https://img-c.udemycdn.com/course/125_H/2310326_6691_6.jpg",
      "image_240x135": "https://img-c.udemycdn.com/course/240x135/2310326_6691_6.jpg",
      "is_practice_test_course": false,
      "image_480x270": "https://img-c.udemycdn.com/course/480x270/2310326_6691_6.jpg",
      "published_title": "curso-de-c-sharp-net-core-desde-cero",
      "tracking_id": "",
      "locale": {
        "_class": "locale",
        "locale": "es_ES",
        "title": "Español (España)",
        "english_title": "Spanish (Spain)",
        "simple_english_title": "Spanish"
      },
      "predictive_score": null,
      "relevancy_score": null,
      "input_features": null,
      "lecture_search_result": null,
      "curriculum_lectures": [],
      "order_in_results": null,
      "curriculum_items": [],
      "headline": "Curso de C# .NET desde cero para el desarrollo de diversas aplicaciones multiplataforma",
      "instructor_name": null
    },
    {
      "_class": "course",
      "id": 4423594,
      "title": "Curso de Python 3.12: Aprende Desde Cero a Pro 2023 Parte 1",
      "url": "/course/curso-de-python-310-aprende-desde-cero-a-pro-2022-parte-1/",
      "is_paid": false,
      "price": "Free",
      "price_detail": null,
      "price_serve_tracking_id": "pYk4G8aQQMqbAKlvDKKERA",
      "visible_instructors": [
        {
          "_class": "user",
          "id": 29704198,
          "title": "Marco Mendoza +100.000 Estudiantes",
          "name": "Marco",
          "display_name": "Marco Mendoza +100.000 Estudiantes",
          "job_title": "Ingeniero en Sistemas,  Téc en Informatica y Autodidacta",
          "image_50x50": "https://img-c.udemycdn.com/user/50x50/29704198_3497_4.jpg",
          "image_100x100": "https://img-c.udemycdn.com/user/100x100/29704198_3497_4.jpg",
          "initials": "MM",
          "url": "/user/mendoza-limon-marco-antonio/"
        }
      ],
      "image_125_H": "https://img-c.udemycdn.com/course/125_H/4423594_210f.jpg",
      "image_240x135": "https://img-c.udemycdn.com/course/240x135/4423594_210f.jpg",
      "is_practice_test_course": false,
      "image_480x270": "https://img-c.udemycdn.com/course/480x270/4423594_210f.jpg",
      "published_title": "curso-de-python-310-aprende-desde-cero-a-pro-2022-parte-1",
      "tracking_id": "",
      "locale": {
        "_class": "locale",
        "locale": "es_MX",
        "title": "Español (México)",
        "english_title": "Spanish (Mexico)",
        "simple_english_title": "Spanish"
      },
      "predictive_score": null,
      "relevancy_score": null,
      "input_features": null,
      "lecture_search_result": null,
      "curriculum_lectures": [],
      "order_in_results": null,
      "curriculum_items": [],
      "headline": "Aprende Como un Profesional Python 3.12.0 el Lenguaje de Programación Más Demandado del Mundo",
      "instructor_name": null
    },
    {
      "_class": "course",
      "id": 4117660,
      "title": "Aprende Hacking Ético con Python [Curso de 4 horas]",
      "url": "/course/hacking-python-4-horas/",
      "is_paid": false,
      "price": "Free",
      "price_detail": null,
      "price_serve_tracking_id": "PJYkirqVSxiq0CV_qG5EEA",
      "visible_instructors": [
        {
          "_class": "user",
          "id": 30827852,
          "title": "Pedro Vargas • Ethical Hacker",
          "name": "Pedro",
          "display_name": "Pedro Vargas • Ethical Hacker",
          "job_title": "INGENIERO DE SEGURIDAD Y AUDITORÍA INFORMÁTICA",
          "image_50x50": "https://img-c.udemycdn.com/user/50x50/30827852_31d9_3.jpg",
          "image_100x100": "https://img-c.udemycdn.com/user/100x100/30827852_31d9_3.jpg",
          "initials": "PV",
          "url": "/user/pedro-javier-3/"
        }
      ],
      "image_125_H": "https://img-c.udemycdn.com/course/125_H/4117660_c7b6_2.jpg",
      "image_240x135": "https://img-c.udemycdn.com/course/240x135/4117660_c7b6_2.jpg",
      "is_practice_test_course": false,
      "image_480x270": "https://img-c.udemycdn.com/course/480x270/4117660_c7b6_2.jpg",
      "published_title": "hacking-python-4-horas",
      "tracking_id": "",
      "locale": {
        "_class": "locale",
        "locale": "es_ES",
        "title": "Español (España)",
        "english_title": "Spanish (Spain)",
        "simple_english_title": "Spanish"
      },
      "predictive_score": null,
      "relevancy_score": null,
      "input_features": null,
      "lecture_search_result": null,
      "curriculum_lectures": [],
      "order_in_results": null,
      "curriculum_items": [],
      "headline": "Programa en Python y crear tus propias herramientas para AUTOMATIZAR y realizar ATAQUES OFENSIVOS de Ethical Hacking",
      "instructor_name": null
    },
    {
      "_class": "course",
      "id": 2195172,
      "title": "Curso de Desarrollo Web con HTML, CSS y JavaScript | Básico",
      "url": "/course/curso-de-desarrollo-web-con-html-css-y-javascript/",
      "is_paid": false,
      "price": "Free",
      "price_detail": null,
      "price_serve_tracking_id": "whGzutoBTiq38U44K5zuhQ",
      "visible_instructors": [
        {
          "_class": "user",
          "id": 16661812,
          "title": "Víctor Robles",
          "name": "Víctor",
          "display_name": "Víctor Robles",
          "job_title": "Desarrollador web",
          "image_50x50": "https://img-c.udemycdn.com/user/50x50/16661812_b24c.jpg",
          "image_100x100": "https://img-c.udemycdn.com/user/100x100/16661812_b24c.jpg",
          "initials": "VR",
          "url": "/user/victor-robles-2/"
        }
      ],
      "image_125_H": "https://img-c.udemycdn.com/course/125_H/2195172_d250.jpg",
      "image_240x135": "https://img-c.udemycdn.com/course/240x135/2195172_d250.jpg",
      "is_practice_test_course": false,
      "image_480x270": "https://img-c.udemycdn.com/course/480x270/2195172_d250.jpg",
      "published_title": "curso-de-desarrollo-web-con-html-css-y-javascript",
      "tracking_id": "",
      "locale": {
        "_class": "locale",
        "locale": "es_ES",
        "title": "Español (España)",
        "english_title": "Spanish (Spain)",
        "simple_english_title": "Spanish"
      },
      "predictive_score": null,
      "relevancy_score": null,
      "input_features": null,
      "lecture_search_result": null,
      "curriculum_lectures": [],
      "order_in_results": null,
      "curriculum_items": [],
      "headline": "Aprende HTML, CSS y JavaScript desde cero y da tus primeros pasos en el desarrollo web. Crea tu primera web paso a paso.",
      "instructor_name": null
    },
    {
      "_class": "course",
      "id": 1576314,
      "title": "Desarrollo Web con HMTL, CSS y Bootstrap 4! Curso desde cero",
      "url": "/course/curso-html5-css3/",
      "is_paid": false,
      "price": "Free",
      "price_detail": null,
      "price_serve_tracking_id": "R_YNt86qQmiZ-ibc49VVMg",
      "visible_instructors": [
        {
          "_class": "user",
          "id": 23487134,
          "title": "Ignacio bluuweb",
          "name": "Ignacio",
          "display_name": "Ignacio bluuweb",
          "job_title": "Programador y Fundador de bluuweb!",
          "image_50x50": "https://img-c.udemycdn.com/user/50x50/23487134_dde9_2.jpg",
          "image_100x100": "https://img-c.udemycdn.com/user/100x100/23487134_dde9_2.jpg",
          "initials": "IB",
          "url": "/user/ignacio-gutierrez-3/"
        }
      ],
      "image_125_H": "https://img-c.udemycdn.com/course/125_H/1576314_7d44_3.jpg",
      "image_240x135": "https://img-c.udemycdn.com/course/240x135/1576314_7d44_3.jpg",
      "is_practice_test_course": false,
      "image_480x270": "https://img-c.udemycdn.com/course/480x270/1576314_7d44_3.jpg",
      "published_title": "curso-html5-css3",
      "tracking_id": "",
      "locale": {
        "_class": "locale",
        "locale": "es_ES",
        "title": "Español (España)",
        "english_title": "Spanish (Spain)",
        "simple_english_title": "Spanish"
      },
      "predictive_score": null,
      "relevancy_score": null,
      "input_features": null,
      "lecture_search_result": null,
      "curriculum_lectures": [],
      "order_in_results": null,
      "curriculum_items": [],
      "headline": "Curso de HTML, CSS y Bootstrap 4 para principiantes, comienza a crear tus propios diseños web sin conocimientos previos!",
      "instructor_name": null
    },
    {
      "_class": "course",
      "id": 814594,
      "title": "Aprende HTML5 y CSS3 desde cero",
      "url": "/course/aprende-html5-y-css3-desde-cero/",
      "is_paid": false,
      "price": "Free",
      "price_detail": null,
      "price_serve_tracking_id": "q_LrMOgiRPO7Vh-VbfkRgQ",
      "visible_instructors": [
        {
          "_class": "user",
          "id": 19669210,
          "title": "Juan Fernando Urrego",
          "name": "Juan Fernando",
          "display_name": "Juan Fernando Urrego",
          "job_title": "Diseñador Visual y Desarrollador Web",
          "image_50x50": "https://img-c.udemycdn.com/user/50x50/19669210_5242_41.jpg",
          "image_100x100": "https://img-c.udemycdn.com/user/100x100/19669210_5242_41.jpg",
          "initials": "JU",
          "url": "/user/juanunativa/"
        }
      ],
      "image_125_H": "https://img-c.udemycdn.com/course/125_H/814594_15eb_4.jpg",
      "image_240x135": "https://img-c.udemycdn.com/course/240x135/814594_15eb_4.jpg",
      "is_practice_test_course": false,
      "image_480x270": "https://img-c.udemycdn.com/course/480x270/814594_15eb_4.jpg",
      "published_title": "aprende-html5-y-css3-desde-cero",
      "tracking_id": "",
      "locale": {
        "_class": "locale",
        "locale": "es_CO",
        "title": "Español (Colombia)",
        "english_title": "Spanish (Colombia)",
        "simple_english_title": "Spanish"
      },
      "predictive_score": null,
      "relevancy_score": null,
      "input_features": null,
      "lecture_search_result": null,
      "curriculum_lectures": [],
      "order_in_results": null,
      "curriculum_items": [],
      "headline": "Construye sitios web desde cero aprendiendo el lenguaje de marcado HTML5 y el lenguaje de estilos CSS3",
      "instructor_name": null
    }
  ]

}